…
starters %>% 
  group_by(`Team(s)`) %>% 
  count() %>% 
  arrange(desc(n))
## A tibble: 32 x 2
## Groups:   Team(s) [32]
#   `Team(s)`     n
#   <chr>     <int>
# 1 BUF           2
# 2 CAR           2
# 3 COL           2
# 4 DAL           2
# 5 FLA           2
# 6 NJD           2
# 7 WSH           2
# 8 ANA           1
# 9 ARI           1
#10 BOS           1
## ... with 22 more rows
…
We could leave them in for some questions, but since ours is limited to 2017-2018 regular season performance, results are more interpritable if we take these 13 columns out.
```r
goalies_stats[ , c((108-12):108)]
## A tibble: 95 x 13
#   GP__1 GS__1  W__1  L__1 OTL__1 GA__2 SA__2 SO__1 PIM__1 MIN__1 QS__2 RBS__1 GPS__1
#   <dbl> <dbl> <dbl> <dbl>  <dbl> <dbl> <dbl> <dbl>  <dbl>  <dbl> <dbl>  <dbl>  <dbl>
# 1     1     0     0     0      0     1     2     0      0      9     0      0   -0.1
# 2   365   246   158   131     40   903  9418    18     20  20144   117     41   50.7
# 3   102    87    43    39     11   239  2644     3      0   5414    41     12   14.3
# 4   144   126    56    55     18   349  3832     9      2   7996    62     22   20.5
# 5    56    49    27    15      6   119  1549     4      2   3092    33      5   10.8
# 6   361   353   225    89     35   831 10306    32     19  20678   211     45   68.2
# 7   395   385   218   129     36   929 11607    24     18  22814   229     46   77.7
# 8   118   104    52    38     16   292  3251     4      2   6557    54     13   17.9
# 9    21    21     5     9      4    68   565     2      0   1092     6      8    1.1
#10   737   593   370   268     80  1863 21999    43     48  42926   338     72  143. 
## ... with 85 more rows
…
