…
## Sentiment Analysis

Julia Silge and David Robinson have put together an excellent online reference on text mining at [https://www.tidytextmining.com/](Text Mining with R) so with some slight work can follow their analyses with email data. Using their `tidytext` package, quickly see a lot of html formatting tags still made it past my `gsub()` gauntlet.

```r
tidy_emails <- 
  sent_messages %>%
  unnest_tokens(word, text)
  
tidy_emails
# # A tibble: 886,870 x 4
#    sent_date           year_sent month_sent word     
#    <dttm>                  <dbl>      <dbl> <chr>    
#  1 2018-09-27 16:30:19      2018          9 htmlbodyp
#  2 2018-09-27 16:30:19      2018          9 style    
#  3 2018-09-27 16:30:19      2018          9 margin   
#  4 2018-09-27 16:30:19      2018          9 0px      
#  5 2018-09-27 16:30:19      2018          9 font     
#  6 2018-09-27 16:30:19      2018          9 stretch  
#  7 2018-09-27 16:30:19      2018          9 normal   
#  8 2018-09-27 16:30:19      2018          9 font     
#  9 2018-09-27 16:30:19      2018          9 size     
# 10 2018-09-27 16:30:19      2018          9 12px     
# # ... with 886,860 more rows
```

In fact, after common stop words are removed, can see the need to add a few more
```r
data(stop_words)

tidy_emails <- 
  tidy_emails %>%
  anti_join(stop_words)

tidy_emails %>%
  count(word, sort = TRUE) 
# # A tibble: 129,528 x 2
#    word                                                                             n
#    <chr>                                                                        <int>
#  1 3d                                                                            8433
#  2 aaaaaaaaaaaaaaaaaaaaaaaaaaaaaaaaaaaaaaaaaaaaaaaaaaaaaaaaaaaaaaaaaaaaaaaaaaaa  7620
#  3 content                                                                       4086
#  4 dan                                                                           3487
#  5 1                                                                             3451
#  6 font                                                                          2735
#  7 type                                                                          2695
#  8 style                                                                         2535
#  9 nbsp                                                                          2495
# 10 class                                                                         2451
# # ... with 129,518 more rows  
```
…
Can see some unsurprising name related common terms, as well as "lol" and "hey". But surprisingly "time", "meeting", "week", and "people" also show up a lot. Wonder if those are unusual. (Would need another sent mail corpus to compare.)

What are my top joy words in email?

```r
nrc_joy <- 
  get_sentiments("nrc") %>% 
  filter(sentiment == "joy")

tidy_emails %>%
  inner_join(nrc_joy) %>%
  count(word, sort = TRUE)
# # A tibble: 373 x 2
#    word        n
#    <chr>   <int>
#  1 art       531
#  2 feeling   389
#  3 hope      387
#  4 found     318
#  5 pretty    286
#  6 true      267
#  7 pay       229
#  8 money     218
#  9 friend    209
# 10 love      203
# # ... with 363 more rows
```
…
2005, 2013, 2015 and 2016 look like more positive sentiment sent mail years. 2009 and 2011 look more negative overall. A few years, much of 2006, 2007 and 2008 are missing, weirdly. 

Also see an apparently highly negative month in August of 2009. 

```r
# whoa happened in August of 2009?
sent_messages %>% filter(sent_date >= "2009-08-01", sent_date <= "2009-08-31") %>% write.csv("temp.csv")

tidy_emails %>%
  mutate(year_sent = year(sent_date),
         month_sent = month(sent_date)) %>% 
  inner_join(get_sentiments("bing")) %>%
  filter(year_sent == 2009, month_sent == 08) %>% 
  count(word, sentiment, sort = TRUE) 
# # A tibble: 237 x 3
#    word       sentiment     n
#    <chr>      <chr>     <int>
#  1 pain       negative     35
#  2 happiness  positive     21
#  3 sting      negative     21
#  4 happy      positive     12
#  5 stinging   negative     12
#  6 depression negative     11
#  7 free       positive     11
#  8 bad        negative      9
#  9 damage     negative      9
# 10 venom      negative      9
# # ... with 227 more rows
```
…
### Most Common Charged Words

If we take all the emotionally charged words and see what comes out most often, we see both surprises and expected outcomes:

```
bing_word_counts <- 
  tidy_emails %>%
  inner_join(get_sentiments("bing")) %>%
  count(word, sentiment, sort = TRUE) %>%
  ungroup()

bing_word_counts
# # A tibble: 2,143 x 3
#    word    sentiment     n
#    <chr>   <chr>     <int>
#  1 cool    positive    481
#  2 nice    positive    456
#  3 free    positive    445
#  4 bad     negative    308
#  5 pretty  positive    286
#  6 retreat negative    239
#  7 solid   positive    230
#  8 fine    positive    222
#  9 hard    negative    219
# 10 worth   positive    207
# # ... with 2,133 more rows
…
